…
#Add number of tokens
speech_df$words<-ntoken(speech_df$speech)

#Remove speeches with less than 100 words
speech_df<-speech_df%>%filter(words>100)

#clean name of minute (acta)
speech_df$acta<-gsub("2018-2019-PLENARIO-SESION-", "", speech_df$acta)
speech_df$acta<-gsub(".docx", "", speech_df$acta)
speech_df$acta<-str_squish(speech_df$acta)

#Number of sessions
speech_df%>%group_by(acta)%>%summarise(tot=n())

## # A tibble: 101 x 2
##    acta    tot
##    <chr> <int>
##  1 10       11
##  2 100       5
##  3 101       7
##  4 103       5
##  5 107       6
##  6 11        5
##  7 110       3
##  8 111       6
##  9 112       6
## 10 115       9
## #  with 91 more rows
…
#Top legislators
speech_df%>%
  group_by(legislator)%>%
  summarise(speeches=n(),
            words=sum(words))%>%
  arrange(desc(words))

## # A tibble: 57 x 3
##    legislator                         speeches words
##    <chr>                                 <int> <int>
##  1 Jos Mara Villalta Flrez Estrada       37 26970
##  2 Pablo Heriberto Abarca Mora              28 23285
##  3 Jonathan Prendas Rodrguez               30 20610
##  4 Melvin ngel Nez Pia                  23 18112
##  5 Paola Vega Rodrguez                     16 17268
##  6 Pedro Muoz Fonseca                      25 17025
##  7 Nielsen Prez Prez                      22 17016
##  8 Dragos Dolanescu Valenciano              21 15717
##  9 Roberto Thompson Chacn                  19 15692
## 10 Carlos Ricardo Benavides Jimnez         18 15478
## #  with 47 more rows
…
